module hibibot

go 1.16

require (
	github.com/containerd/containerd v1.5.2 // indirect
	github.com/docker/docker v20.10.7+incompatible // indirect
	github.com/docker/go-connections v0.4.0 // indirect
	github.com/sirupsen/logrus v1.8.1 // indirect
	google.golang.org/grpc v1.38.0 // indirect
)
